%YAML 1.1
%TAG !u! tag:unity3d.com,2011:
--- !u!29 &1
OcclusionCullingSettings:
  m_ObjectHideFlags: 0
  serializedVersion: 2
  m_OcclusionBakeSettings:
    smallestOccluder: 5
    smallestHole: 0.25
    backfaceThreshold: 100
  m_SceneGUID: 00000000000000000000000000000000
  m_OcclusionCullingData: {fileID: 0}
--- !u!104 &2
RenderSettings:
  m_ObjectHideFlags: 0
  serializedVersion: 9
  m_Fog: 0
  m_FogColor: {r: 0.5, g: 0.5, b: 0.5, a: 1}
  m_FogMode: 3
  m_FogDensity: 0.01
  m_LinearFogStart: 0
  m_LinearFogEnd: 300
  m_AmbientSkyColor: {r: 0.212, g: 0.227, b: 0.259, a: 1}
  m_AmbientEquatorColor: {r: 0.114, g: 0.125, b: 0.133, a: 1}
  m_AmbientGroundColor: {r: 0.047, g: 0.043, b: 0.035, a: 1}
  m_AmbientIntensity: 1
  m_AmbientMode: 0
  m_SubtractiveShadowColor: {r: 0.42, g: 0.478, b: 0.627, a: 1}
  m_SkyboxMaterial: {fileID: 2100000, guid: ce2aeefce4213e34eaeeb19d17b4dd3c, type: 2}
  m_HaloStrength: 0.5
  m_FlareStrength: 1
  m_FlareFadeSpeed: 3
  m_HaloTexture: {fileID: 0}
  m_SpotCookie: {fileID: 10001, guid: 0000000000000000e000000000000000, type: 0}
  m_DefaultReflectionMode: 0
  m_DefaultReflectionResolution: 128
  m_ReflectionBounces: 1
  m_ReflectionIntensity: 1
  m_CustomReflection: {fileID: 0}
  m_Sun: {fileID: 0}
  m_IndirectSpecularColor: {r: 0, g: 0, b: 0, a: 1}
  m_UseRadianceAmbientProbe: 0
--- !u!157 &3
LightmapSettings:
  m_ObjectHideFlags: 0
  serializedVersion: 12
  m_GIWorkflowMode: 0
  m_GISettings:
    serializedVersion: 2
    m_BounceScale: 1
    m_IndirectOutputScale: 1
    m_AlbedoBoost: 1
    m_EnvironmentLightingMode: 0
    m_EnableBakedLightmaps: 1
    m_EnableRealtimeLightmaps: 1
  m_LightmapEditorSettings:
    serializedVersion: 12
    m_Resolution: 2
    m_BakeResolution: 40
    m_AtlasSize: 1024
    m_AO: 0
    m_AOMaxDistance: 1
    m_CompAOExponent: 0
    m_CompAOExponentDirect: 0
    m_ExtractAmbientOcclusion: 0
    m_Padding: 2
    m_LightmapParameters: {fileID: 0}
    m_LightmapsBakeMode: 1
    m_TextureCompression: 1
    m_FinalGather: 0
    m_FinalGatherFiltering: 1
    m_FinalGatherRayCount: 1024
    m_ReflectionCompression: 2
    m_MixedBakeMode: 1
    m_BakeBackend: 0
    m_PVRSampling: 1
    m_PVRDirectSampleCount: 32
    m_PVRSampleCount: 512
    m_PVRBounces: 2
    m_PVREnvironmentSampleCount: 512
    m_PVREnvironmentReferencePointCount: 2048
    m_PVRFilteringMode: 0
    m_PVRDenoiserTypeDirect: 0
    m_PVRDenoiserTypeIndirect: 0
    m_PVRDenoiserTypeAO: 0
    m_PVRFilterTypeDirect: 0
    m_PVRFilterTypeIndirect: 0
    m_PVRFilterTypeAO: 0
    m_PVREnvironmentMIS: 0
    m_PVRCulling: 1
    m_PVRFilteringGaussRadiusDirect: 1
    m_PVRFilteringGaussRadiusIndirect: 5
    m_PVRFilteringGaussRadiusAO: 2
    m_PVRFilteringAtrousPositionSigmaDirect: 0.5
    m_PVRFilteringAtrousPositionSigmaIndirect: 2
    m_PVRFilteringAtrousPositionSigmaAO: 1
    m_ExportTrainingData: 0
    m_TrainingDataDestination: TrainingData
    m_LightProbeSampleCountMultiplier: 4
  m_LightingDataAsset: {fileID: 0}
  m_LightingSettings: {fileID: 4890085278179872738, guid: 9123e3f6f4ae6a04381f5707e1a19924, type: 2}
--- !u!196 &4
NavMeshSettings:
  serializedVersion: 2
  m_ObjectHideFlags: 0
  m_BuildSettings:
    serializedVersion: 2
    agentTypeID: 0
    agentRadius: 0.5
    agentHeight: 2
    agentSlope: 45
    agentClimb: 0.4
    ledgeDropHeight: 0
    maxJumpAcrossDistance: 0
    minRegionArea: 2
    manualCellSize: 0
    cellSize: 0.16666667
    manualTileSize: 0
    tileSize: 256
    accuratePlacement: 0
    maxJobWorkers: 0
    preserveTilesOutsideBounds: 0
    debug:
      m_Flags: 0
  m_NavMeshData: {fileID: 0}
--- !u!1001 &451151842
PrefabInstance:
  m_ObjectHideFlags: 0
  serializedVersion: 2
  m_Modification:
    m_TransformParent: {fileID: 0}
    m_Modifications:
    - target: {fileID: 129576, guid: fa1d28cf8ddec4848a57e054036e1dac, type: 3}
      propertyPath: m_IsActive
      value: 1
      objectReference: {fileID: 0}
    - target: {fileID: 485872, guid: fa1d28cf8ddec4848a57e054036e1dac, type: 3}
      propertyPath: m_RootOrder
      value: 0
      objectReference: {fileID: 0}
    - target: {fileID: 485872, guid: fa1d28cf8ddec4848a57e054036e1dac, type: 3}
      propertyPath: m_LocalPosition.x
      value: 0
      objectReference: {fileID: 0}
    - target: {fileID: 485872, guid: fa1d28cf8ddec4848a57e054036e1dac, type: 3}
      propertyPath: m_LocalPosition.y
      value: -2.16
      objectReference: {fileID: 0}
    - target: {fileID: 485872, guid: fa1d28cf8ddec4848a57e054036e1dac, type: 3}
      propertyPath: m_LocalPosition.z
      value: -27.55
      objectReference: {fileID: 0}
    - target: {fileID: 485872, guid: fa1d28cf8ddec4848a57e054036e1dac, type: 3}
      propertyPath: m_LocalRotation.w
      value: 1
      objectReference: {fileID: 0}
    - target: {fileID: 485872, guid: fa1d28cf8ddec4848a57e054036e1dac, type: 3}
      propertyPath: m_LocalRotation.x
      value: 0
      objectReference: {fileID: 0}
    - target: {fileID: 485872, guid: fa1d28cf8ddec4848a57e054036e1dac, type: 3}
      propertyPath: m_LocalRotation.y
      value: 0
      objectReference: {fileID: 0}
    - target: {fileID: 485872, guid: fa1d28cf8ddec4848a57e054036e1dac, type: 3}
      propertyPath: m_LocalRotation.z
      value: 0
      objectReference: {fileID: 0}
    - target: {fileID: 485872, guid: fa1d28cf8ddec4848a57e054036e1dac, type: 3}
      propertyPath: m_LocalEulerAnglesHint.x
      value: 0
      objectReference: {fileID: 0}
    - target: {fileID: 2047030, guid: fa1d28cf8ddec4848a57e054036e1dac, type: 3}
      propertyPath: m_ClearFlags
      value: 2
      objectReference: {fileID: 0}
    - target: {fileID: 2047030, guid: fa1d28cf8ddec4848a57e054036e1dac, type: 3}
      propertyPath: orthographic
      value: 1
      objectReference: {fileID: 0}
    - target: {fileID: 2047030, guid: fa1d28cf8ddec4848a57e054036e1dac, type: 3}
      propertyPath: orthographic size
      value: 12.5
      objectReference: {fileID: 0}
    - target: {fileID: 2047030, guid: fa1d28cf8ddec4848a57e054036e1dac, type: 3}
      propertyPath: m_BackGroundColor.a
      value: 1
      objectReference: {fileID: 0}
    - target: {fileID: 2047030, guid: fa1d28cf8ddec4848a57e054036e1dac, type: 3}
      propertyPath: m_BackGroundColor.b
      value: 0
      objectReference: {fileID: 0}
    - target: {fileID: 2047030, guid: fa1d28cf8ddec4848a57e054036e1dac, type: 3}
      propertyPath: m_BackGroundColor.g
      value: 0
      objectReference: {fileID: 0}
    - target: {fileID: 2047030, guid: fa1d28cf8ddec4848a57e054036e1dac, type: 3}
      propertyPath: m_BackGroundColor.r
      value: 0
      objectReference: {fileID: 0}
    - target: {fileID: 11403970, guid: fa1d28cf8ddec4848a57e054036e1dac, type: 3}
      propertyPath: m_Enabled
      value: 1
      objectReference: {fileID: 0}
    m_RemovedComponents: []
  m_SourcePrefab: {fileID: 100100000, guid: fa1d28cf8ddec4848a57e054036e1dac, type: 3}
--- !u!1001 &654521341
PrefabInstance:
  m_ObjectHideFlags: 0
  serializedVersion: 2
  m_Modification:
    m_TransformParent: {fileID: 0}
    m_Modifications:
    - target: {fileID: 408908, guid: e882af2610b8b8240b4e9884f74c860a, type: 3}
      propertyPath: m_RootOrder
      value: 1
      objectReference: {fileID: 0}
    - target: {fileID: 408908, guid: e882af2610b8b8240b4e9884f74c860a, type: 3}
      propertyPath: m_LocalPosition.x
      value: 0
      objectReference: {fileID: 0}
    - target: {fileID: 408908, guid: e882af2610b8b8240b4e9884f74c860a, type: 3}
      propertyPath: m_LocalPosition.y
      value: 8.88
      objectReference: {fileID: 0}
    - target: {fileID: 408908, guid: e882af2610b8b8240b4e9884f74c860a, type: 3}
      propertyPath: m_LocalPosition.z
      value: 0
      objectReference: {fileID: 0}
    - target: {fileID: 408908, guid: e882af2610b8b8240b4e9884f74c860a, type: 3}
      propertyPath: m_LocalRotation.w
      value: 0.90592
      objectReference: {fileID: 0}
    - target: {fileID: 408908, guid: e882af2610b8b8240b4e9884f74c860a, type: 3}
      propertyPath: m_LocalRotation.x
      value: 0.42243734
      objectReference: {fileID: 0}
    - target: {fileID: 408908, guid: e882af2610b8b8240b4e9884f74c860a, type: 3}
      propertyPath: m_LocalRotation.y
      value: 0.026510712
      objectReference: {fileID: 0}
    - target: {fileID: 408908, guid: e882af2610b8b8240b4e9884f74c860a, type: 3}
      propertyPath: m_LocalRotation.z
      value: -0.012362135
      objectReference: {fileID: 0}
    m_RemovedComponents: []
  m_SourcePrefab: {fileID: 100100000, guid: e882af2610b8b8240b4e9884f74c860a, type: 3}
--- !u!1001 &715279434
PrefabInstance:
  m_ObjectHideFlags: 0
  serializedVersion: 2
  m_Modification:
    m_TransformParent: {fileID: 0}
    m_Modifications:
    - target: {fileID: 431048, guid: 2e186c51369ee3247b7107c82c7525a9, type: 3}
      propertyPath: m_RootOrder
      value: 3
      objectReference: {fileID: 0}
    - target: {fileID: 431048, guid: 2e186c51369ee3247b7107c82c7525a9, type: 3}
      propertyPath: m_LocalPosition.x
      value: 0
      objectReference: {fileID: 0}
    - target: {fileID: 431048, guid: 2e186c51369ee3247b7107c82c7525a9, type: 3}
      propertyPath: m_LocalPosition.y
      value: 9.91
      objectReference: {fileID: 0}
    - target: {fileID: 431048, guid: 2e186c51369ee3247b7107c82c7525a9, type: 3}
      propertyPath: m_LocalPosition.z
      value: 0
      objectReference: {fileID: 0}
    - target: {fileID: 431048, guid: 2e186c51369ee3247b7107c82c7525a9, type: 3}
      propertyPath: m_LocalRotation.w
      value: 1
      objectReference: {fileID: 0}
    - target: {fileID: 431048, guid: 2e186c51369ee3247b7107c82c7525a9, type: 3}
      propertyPath: m_LocalRotation.x
      value: -0
      objectReference: {fileID: 0}
    - target: {fileID: 431048, guid: 2e186c51369ee3247b7107c82c7525a9, type: 3}
      propertyPath: m_LocalRotation.y
      value: 0
      objectReference: {fileID: 0}
    - target: {fileID: 431048, guid: 2e186c51369ee3247b7107c82c7525a9, type: 3}
      propertyPath: m_LocalRotation.z
      value: 0
      objectReference: {fileID: 0}
    m_RemovedComponents: []
  m_SourcePrefab: {fileID: 100100000, guid: 2e186c51369ee3247b7107c82c7525a9, type: 3}
--- !u!1001 &874310682
PrefabInstance:
  m_ObjectHideFlags: 0
  serializedVersion: 2
  m_Modification:
    m_TransformParent: {fileID: 0}
    m_Modifications:
    - target: {fileID: 443540, guid: e7facf402415cba40b0bb854a2dd2bf5, type: 3}
      propertyPath: m_RootOrder
      value: 4
      objectReference: {fileID: 0}
    - target: {fileID: 443540, guid: e7facf402415cba40b0bb854a2dd2bf5, type: 3}
      propertyPath: m_LocalPosition.x
      value: 0
      objectReference: {fileID: 0}
    - target: {fileID: 443540, guid: e7facf402415cba40b0bb854a2dd2bf5, type: 3}
      propertyPath: m_LocalPosition.y
      value: -2.51
      objectReference: {fileID: 0}
    - target: {fileID: 443540, guid: e7facf402415cba40b0bb854a2dd2bf5, type: 3}
      propertyPath: m_LocalPosition.z
      value: 0
      objectReference: {fileID: 0}
    - target: {fileID: 443540, guid: e7facf402415cba40b0bb854a2dd2bf5, type: 3}
      propertyPath: m_LocalRotation.w
      value: 1
      objectReference: {fileID: 0}
    - target: {fileID: 443540, guid: e7facf402415cba40b0bb854a2dd2bf5, type: 3}
      propertyPath: m_LocalRotation.x
      value: -0
      objectReference: {fileID: 0}
    - target: {fileID: 443540, guid: e7facf402415cba40b0bb854a2dd2bf5, type: 3}
      propertyPath: m_LocalRotation.y
      value: 0
      objectReference: {fileID: 0}
    - target: {fileID: 443540, guid: e7facf402415cba40b0bb854a2dd2bf5, type: 3}
      propertyPath: m_LocalRotation.z
      value: 0
      objectReference: {fileID: 0}
    m_RemovedComponents: []
  m_SourcePrefab: {fileID: 100100000, guid: e7facf402415cba40b0bb854a2dd2bf5, type: 3}
--- !u!1001 &1402751080
PrefabInstance:
  m_ObjectHideFlags: 0
  serializedVersion: 2
  m_Modification:
    m_TransformParent: {fileID: 0}
    m_Modifications:
    - target: {fileID: 119732, guid: e7298a3a55795d74d95723db751f8562, type: 3}
      propertyPath: m_IsActive
      value: 0
      objectReference: {fileID: 0}
    - target: {fileID: 488268, guid: e7298a3a55795d74d95723db751f8562, type: 3}
      propertyPath: m_RootOrder
      value: 2
      objectReference: {fileID: 0}
    - target: {fileID: 488268, guid: e7298a3a55795d74d95723db751f8562, type: 3}
      propertyPath: m_LocalPosition.x
      value: 0
      objectReference: {fileID: 0}
    - target: {fileID: 488268, guid: e7298a3a55795d74d95723db751f8562, type: 3}
      propertyPath: m_LocalPosition.y
      value: 0
      objectReference: {fileID: 0}
    - target: {fileID: 488268, guid: e7298a3a55795d74d95723db751f8562, type: 3}
      propertyPath: m_LocalPosition.z
      value: 0
      objectReference: {fileID: 0}
    - target: {fileID: 488268, guid: e7298a3a55795d74d95723db751f8562, type: 3}
      propertyPath: m_LocalRotation.w
      value: 0.7071067
      objectReference: {fileID: 0}
    - target: {fileID: 488268, guid: e7298a3a55795d74d95723db751f8562, type: 3}
      propertyPath: m_LocalRotation.x
      value: 0.7071068
      objectReference: {fileID: 0}
    - target: {fileID: 488268, guid: e7298a3a55795d74d95723db751f8562, type: 3}
      propertyPath: m_LocalRotation.y
      value: 0
      objectReference: {fileID: 0}
    - target: {fileID: 488268, guid: e7298a3a55795d74d95723db751f8562, type: 3}
      propertyPath: m_LocalRotation.z
      value: 0
      objectReference: {fileID: 0}
    m_RemovedComponents: []
  m_SourcePrefab: {fileID: 100100000, guid: e7298a3a55795d74d95723db751f8562, type: 3}
--- !u!1001 &1956549552
PrefabInstance:
  m_ObjectHideFlags: 0
  serializedVersion: 2
  m_Modification:
    m_TransformParent: {fileID: 0}
    m_Modifications:
    - target: {fileID: 498004, guid: 538e5d1713381654dbad312446395bc8, type: 3}
      propertyPath: m_RootOrder
      value: 5
      objectReference: {fileID: 0}
    - target: {fileID: 498004, guid: 538e5d1713381654dbad312446395bc8, type: 3}
      propertyPath: m_LocalPosition.x
      value: 0
      objectReference: {fileID: 0}
    - target: {fileID: 498004, guid: 538e5d1713381654dbad312446395bc8, type: 3}
      propertyPath: m_LocalPosition.y
      value: 13.9
      objectReference: {fileID: 0}
    - target: {fileID: 498004, guid: 538e5d1713381654dbad312446395bc8, type: 3}
      propertyPath: m_LocalPosition.z
      value: 0
      objectReference: {fileID: 0}
    - target: {fileID: 498004, guid: 538e5d1713381654dbad312446395bc8, type: 3}
      propertyPath: m_LocalRotation.w
      value: 1
      objectReference: {fileID: 0}
    - target: {fileID: 498004, guid: 538e5d1713381654dbad312446395bc8, type: 3}
      propertyPath: m_LocalRotation.x
      value: -0
      objectReference: {fileID: 0}
    - target: {fileID: 498004, guid: 538e5d1713381654dbad312446395bc8, type: 3}
      propertyPath: m_LocalRotation.y
      value: 0
      objectReference: {fileID: 0}
    - target: {fileID: 498004, guid: 538e5d1713381654dbad312446395bc8, type: 3}
      propertyPath: m_LocalRotation.z
      value: 0
      objectReference: {fileID: 0}
    m_RemovedComponents: []
  m_SourcePrefab: {fileID: 100100000, guid: 538e5d1713381654dbad312446395bc8, type: 3}
