# Apple ModelIO OBJ File: cajasobj
mtllib cajasobj.mtl
g esquina8_anisotropic1SG
v -4.99231 0.201696 2.04273
v -4.57196 0.201696 2.04273
v -4.57196 0.627851 2.04273
v -4.99231 0.627851 2.04273
v -4.99231 0.201696 1.57934
v -4.57196 0.201696 1.57934
v -4.99231 0.627851 1.57934
vn 0 0 1
vn 0 -1 0
vn -1 0 0
vt 0.375 0
vt 0.400722 0
vt 0.400722 0.026078
vt 0.375 0.026078
vt 0.375 0.971644
vt 0.400722 0.971644
vt 0.400722 1
vt 0.375 1
vt 0.346644 0
vt 0.346644 0.026078
usemtl anisotropic1SG
f 1/1/1 2/2/1 3/3/1
f 1/1/1 3/3/1 4/4/1
f 5/5/2 6/6/2 2/7/2
f 5/5/2 2/7/2 1/8/2
f 5/9/3 1/1/3 4/4/3
f 5/9/3 4/4/3 7/10/3
s off
g Caja1_anisotropic1SG
v -4.99231 4.28716 2.04273
v -4.57196 4.28716 2.04273
v -4.57196 4.28716 1.57934
v -4.99231 4.28716 1.57934
v -4.99231 3.81874 2.04273
v -4.57196 3.81874 2.04273
v -4.99231 3.81874 1.57934
vn 0 1 0
vn 0 0 1
vn -1 0 0
vt 0.375 0.25
vt 0.400722 0.25
vt 0.400722 0.278356
vt 0.375 0.278356
vt 0.375 0.221336
vt 0.400722 0.221336
vt 0.346644 0.221336
vt 0.346644 0.25
usemtl anisotropic1SG
f 8/11/4 9/12/4 10/13/4
f 8/11/4 10/13/4 11/14/4
f 12/15/5 13/16/5 9/12/5
f 12/15/5 9/12/5 8/11/5
f 14/17/6 12/15/6 8/11/6
f 14/17/6 8/11/6 11/18/6
s off
g Caja1_anisotropic1SG_1
v -4.99231 0.627851 -2.04273
v -4.57196 0.627851 -2.04273
v -4.57196 0.201696 -2.04273
v -4.99231 0.201696 -2.04273
v -4.99231 0.201696 -1.60743
v -4.99231 0.627851 -1.60743
v -4.57196 0.201696 -1.60743
vn 0 0 -1
vn -1 0 0
vn 0 -1 0
vt 0.375 0.723922
vt 0.400722 0.723922
vt 0.400722 0.75
vt 0.375 0.75
vt 0.125 0
vt 0.151637 0
vt 0.151637 0.026078
vt 0.125 0.026078
vt 0.400722 0.776637
vt 0.375 0.776637
usemtl anisotropic1SG
f 15/19/7 16/20/7 17/21/7
f 15/19/7 17/21/7 18/22/7
f 18/23/8 19/24/8 20/25/8
f 18/23/8 20/25/8 15/26/8
f 18/22/9 17/21/9 21/27/9
f 18/22/9 21/27/9 19/28/9
s off
g Caja1_anisotropic1SG_2
v -0.906842 0.201696 2.04273
v -0.906842 0.201696 1.57934
v -0.906842 0.627851 1.57934
v -0.906842 0.627851 2.04273
v -1.36188 0.201696 2.04273
v -1.36188 0.201696 1.57934
v -1.36188 0.627851 2.04273
vn 1 0 0
vn 0 -1 0
vn 0 0 1
vt 0.625 0
vt 0.653356 0
vt 0.653356 0.026078
vt 0.625 0.026078
vt 0.597155 1
vt 0.597155 0.971644
vt 0.625 0.971644
vt 0.625 1
vt 0.597155 0.026078
vt 0.597155 0
usemtl anisotropic1SG
f 22/29/10 23/30/10 24/31/10
f 22/29/10 24/31/10 25/32/10
f 26/33/11 27/34/11 23/35/11
f 26/33/11 23/35/11 22/36/11
f 25/32/12 28/37/12 26/38/12
f 25/32/12 26/38/12 22/29/12
s off
g Caja1_lambert2SG
v -4.57196 4.28716 2.04273
v -1.36188 4.28716 2.04273
v -1.36188 4.28716 1.57934
v -4.57196 4.28716 1.57934
v -4.57196 0.201696 -2.04273
v -4.57196 0.627851 -2.04273
v -1.36188 0.627851 -2.04273
v -1.36188 0.201696 -2.04273
v -4.57196 0.201696 2.04273
v -4.57196 0.201696 1.57934
v -1.36188 0.201696 1.57934
v -1.36188 0.201696 2.04273
v -4.57196 0.627851 2.04273
v -1.36188 0.627851 2.04273
v -4.57196 3.81874 2.04273
v -1.36188 3.81874 2.04273
v -1.36188 3.81874 -2.04273
v -4.57196 3.81874 -2.04273
v -4.57196 4.28716 -2.04273
v -1.36188 4.28716 -2.04273
v -4.57196 3.81874 1.77918
v -4.57196 0.627851 1.77918
v -1.36188 0.627851 1.77918
v -1.36188 3.81874 1.77918
v -4.99231 0.627851 2.04273
v -4.99231 3.81874 2.04273
v -4.99231 0.627851 1.57934
v -4.99231 3.81874 1.57934
v -4.99231 3.81874 -2.04273
v -4.99231 0.627851 -2.04273
v -1.36188 0.627851 -1.77918
v -4.57196 0.627851 -1.77918
v -4.57196 3.81874 -1.77918
v -1.36188 3.81874 -1.77918
v -0.906842 0.627851 -2.04273
v -0.906842 3.81874 -2.04273
v -0.906842 0.627851 2.04273
v -0.906842 0.627851 1.57934
v -0.906842 3.81874 1.57934
v -0.906842 3.81874 2.04273
v -0.906842 4.28716 1.57934
v -0.906842 4.28716 -1.60743
v -1.36188 4.28716 -1.60743
v -4.57196 4.02361 1.57934
v -1.36188 4.02361 1.57934
v -1.36188 4.02361 -1.60743
v -4.57196 4.02361 -1.60743
v -4.99231 4.28716 1.57934
v -4.57196 4.28716 -1.60743
v -4.99231 4.28716 -1.60743
v -4.99231 3.81874 -1.60743
v -4.72875 0.627851 -1.60743
v -4.72875 0.627851 1.57934
v -4.72875 3.81874 1.57934
v -4.72875 3.81874 -1.60743
v -4.99231 0.201696 -1.60743
v -4.99231 0.201696 1.57934
v -4.99231 0.627851 -1.60743
v -4.57196 0.201696 -1.60743
v -1.36188 0.465248 1.57934
v -4.57196 0.465248 1.57934
v -4.57196 0.465248 -1.60743
v -1.36188 0.465248 -1.60743
v -0.906842 0.201696 1.57934
v -1.36188 0.201696 -1.60743
v -0.906842 0.201696 -1.60743
v -0.906842 0.627851 -1.60743
v -1.17039 3.81874 1.57934
v -1.17039 0.627851 1.57934
v -1.17039 0.627851 -1.60743
v -1.17039 3.81874 -1.60743
v -0.906842 3.81874 -1.60743
vn 0 1 0
vn 0 0 -1
vn 0 -1 0
vn 0 0 1
vn -1 0 0
vn 1 0 0
vt 0.400722 0.25
vt 0.597155 0.25
vt 0.597155 0.278356
vt 0.400722 0.278356
vt 0.400722 0.75
vt 0.400722 0.723922
vt 0.597155 0.723922
vt 0.597155 0.75
vt 0.400722 1
vt 0.400722 0.971644
vt 0.597155 0.971644
vt 0.597155 1
vt 0.400722 0.026078
vt 0.400722 0
vt 0.597155 0
vt 0.597155 0.026078
vt 0.400722 0.221336
vt 0.597155 0.221336
vt 0.597155 0.528664
vt 0.400722 0.528664
vt 0.400722 0.5
vt 0.597155 0.5
vt 0.375 0.026078
vt 0.375 0.221336
vt 0.346644 0.026078
vt 0.346644 0.221336
vt 0.375 0.528664
vt 0.375 0.723922
vt 0.625 0.723922
vt 0.625 0.528664
vt 0.625 0.026078
vt 0.653356 0.026078
vt 0.653356 0.221336
vt 0.625 0.221336
vt 0.625 0.278356
vt 0.625 0.473363
vt 0.597155 0.473363
vt 0.400722 0.473363
vt 0.375 0.278356
vt 0.375 0.473363
vt 0.151637 0.221336
vt 0.346644 0.25
vt 0.151637 0.25
vt 0.151637 0.026078
vt 0.151637 0
vt 0.346644 0
vt 0.375 0.776637
vt 0.400722 0.776637
vt 0.375 0.971644
vt 0.597155 0.776637
vt 0.625 0.971644
vt 0.625 0.776637
vt 0.653356 0
vt 0.848363 0
vt 0.848363 0.026078
vt 0.848363 0.221336
vt 0.653356 0.25
vt 0.848363 0.25
vt 0.125 0.026078
vt 0.125 0.221336
vt 0.875 0.026078
vt 0.875 0.221336
usemtl lambert2SG
f 29/39/13 30/40/13 31/41/13
f 29/39/13 31/41/13 32/42/13
f 33/43/14 34/44/14 35/45/14
f 33/43/14 35/45/14 36/46/14
f 37/47/15 38/48/15 39/49/15
f 37/47/15 39/49/15 40/50/15
f 41/51/16 37/52/16 40/53/16
f 41/51/16 40/53/16 42/54/16
f 29/39/16 43/55/16 44/56/16
f 29/39/16 44/56/16 30/40/16
f 45/57/14 46/58/14 47/59/14
f 45/57/14 47/59/14 48/60/14
f 49/55/16 50/51/16 51/54/16
f 49/55/16 51/54/16 52/56/16
f 53/61/16 41/51/16 43/55/16
f 53/61/16 43/55/16 54/62/16
f 55/63/17 53/61/17 54/62/17
f 55/63/17 54/62/17 56/64/17
f 57/65/14 46/58/14 34/44/14
f 57/65/14 34/44/14 58/66/14
f 59/45/14 60/44/14 61/58/14
f 59/45/14 61/58/14 62/57/14
f 63/67/14 35/45/14 45/57/14
f 63/67/14 45/57/14 64/68/14
f 65/69/18 66/70/18 67/71/18
f 65/69/18 67/71/18 68/72/18
f 68/72/16 44/56/16 42/54/16
f 68/72/16 42/54/16 65/69/16
f 31/41/13 69/73/13 70/74/13
f 31/41/13 70/74/13 71/75/13
f 72/42/13 73/41/13 74/75/13
f 72/42/13 74/75/13 75/76/13
f 76/77/13 32/42/13 77/76/13
f 76/77/13 77/76/13 78/78/13
f 79/79/17 56/64/17 76/80/17
f 79/79/17 76/80/17 78/81/17
f 80/82/17 81/63/17 82/64/17
f 80/82/17 82/64/17 83/79/17
f 84/83/17 85/84/17 55/63/17
f 84/83/17 55/63/17 86/82/17
f 84/85/15 87/86/15 38/48/15
f 84/85/15 38/48/15 85/87/15
f 88/49/15 89/48/15 90/86/15
f 88/49/15 90/86/15 91/88/15
f 92/89/15 39/49/15 93/88/15
f 92/89/15 93/88/15 94/90/15
f 66/70/18 92/91/18 94/92/18
f 66/70/18 94/92/18 95/93/18
f 96/71/18 97/70/18 98/93/18
f 96/71/18 98/93/18 99/94/18
f 69/95/18 67/71/18 100/94/18
f 69/95/18 100/94/18 70/96/18
f 77/76/13 71/75/13 48/60/13
f 77/76/13 48/60/13 47/59/13
f 58/97/17 86/82/17 79/79/17
f 58/97/17 79/79/17 57/98/17
f 93/88/15 87/86/15 33/43/15
f 93/88/15 33/43/15 36/46/15
f 100/94/18 95/93/18 63/99/18
f 100/94/18 63/99/18 64/100/18
f 43/55/18 41/51/18 50/51/18
f 43/55/18 50/51/18 49/55/18
f 41/51/13 42/54/13 51/54/13
f 41/51/13 51/54/13 50/51/13
f 42/54/17 44/56/17 52/56/17
f 42/54/17 52/56/17 51/54/17
f 44/56/15 43/55/15 49/55/15
f 44/56/15 49/55/15 52/56/15
f 35/45/13 34/44/13 60/44/13
f 35/45/13 60/44/13 59/45/13
f 34/44/18 46/58/18 61/58/18
f 34/44/18 61/58/18 60/44/18
f 46/58/15 45/57/15 62/57/15
f 46/58/15 62/57/15 61/58/15
f 45/57/17 35/45/17 59/45/17
f 45/57/17 59/45/17 62/57/17
f 32/42/14 31/41/14 73/41/14
f 32/42/14 73/41/14 72/42/14
f 31/41/17 71/75/17 74/75/17
f 31/41/17 74/75/17 73/41/17
f 71/75/16 77/76/16 75/76/16
f 71/75/16 75/76/16 74/75/16
f 77/76/18 32/42/18 72/42/18
f 77/76/18 72/42/18 75/76/18
f 86/82/13 55/63/13 81/63/13
f 86/82/13 81/63/13 80/82/13
f 55/63/14 56/64/14 82/64/14
f 55/63/14 82/64/14 81/63/14
f 56/64/15 79/79/15 83/79/15
f 56/64/15 83/79/15 82/64/15
f 79/79/16 86/82/16 80/82/16
f 79/79/16 80/82/16 83/79/16
f 39/49/14 38/48/14 89/48/14
f 39/49/14 89/48/14 88/49/14
f 38/48/18 87/86/18 90/86/18
f 38/48/18 90/86/18 89/48/18
f 87/86/16 93/88/16 91/88/16
f 87/86/16 91/88/16 90/86/16
f 93/88/17 39/49/17 88/49/17
f 93/88/17 88/49/17 91/88/17
f 67/71/14 66/70/14 97/70/14
f 67/71/14 97/70/14 96/71/14
f 66/70/13 95/93/13 98/93/13
f 66/70/13 98/93/13 97/70/13
f 95/93/16 100/94/16 99/94/16
f 95/93/16 99/94/16 98/93/16
f 100/94/15 67/71/15 96/71/15
f 100/94/15 96/71/15 99/94/15
s off
g Caja1_anisotropic1SG_3
v -1.36188 4.28716 2.04273
v -0.906842 4.28716 2.04273
v -0.906842 4.28716 1.57934
v -1.36188 4.28716 1.57934
v -0.906842 3.81874 2.04273
v -0.906842 3.81874 1.57934
v -1.36188 3.81874 2.04273
vn 0 1 0
vn 1 0 0
vn 0 0 1
vt 0.597155 0.25
vt 0.625 0.25
vt 0.625 0.278356
vt 0.597155 0.278356
vt 0.625 0.221336
vt 0.653356 0.221336
vt 0.653356 0.25
vt 0.597155 0.221336
usemtl anisotropic1SG
f 101/101/19 102/102/19 103/103/19
f 101/101/19 103/103/19 104/104/19
f 105/105/20 106/106/20 103/107/20
f 105/105/20 103/107/20 102/102/20
f 101/101/21 107/108/21 105/105/21
f 101/101/21 105/105/21 102/102/21
s off
g Caja1_anisotropic1SG_4
v -1.36188 0.201696 -2.04273
v -1.36188 0.627851 -2.04273
v -0.906842 0.627851 -2.04273
v -0.906842 0.201696 -2.04273
v -0.906842 0.201696 -1.60743
v -1.36188 0.201696 -1.60743
v -0.906842 0.627851 -1.60743
vn 0 0 -1
vn 0 -1 0
vn 1 0 0
vt 0.597155 0.75
vt 0.597155 0.723922
vt 0.625 0.723922
vt 0.625 0.75
vt 0.625 0.776637
vt 0.597155 0.776637
vt 0.848363 0.026078
vt 0.848363 0
vt 0.875 0
vt 0.875 0.026078
usemtl anisotropic1SG
f 108/109/22 109/110/22 110/111/22
f 108/109/22 110/111/22 111/112/22
f 112/113/23 113/114/23 108/109/23
f 112/113/23 108/109/23 111/112/23
f 114/115/24 112/116/24 111/117/24
f 114/115/24 111/117/24 110/118/24
s off
g Caja1_anisotropic1SG_5
v -4.99231 4.28716 -2.04273
v -4.57196 4.28716 -2.04273
v -4.57196 3.81874 -2.04273
v -4.99231 3.81874 -2.04273
v -4.99231 4.28716 -1.60743
v -4.57196 4.28716 -1.60743
v -4.99231 3.81874 -1.60743
vn 0 0 -1
vn 0 1 0
vn -1 0 0
vt 0.375 0.5
vt 0.400722 0.5
vt 0.400722 0.528664
vt 0.375 0.528664
vt 0.375 0.473363
vt 0.400722 0.473363
vt 0.125 0.221336
vt 0.151637 0.221336
vt 0.151637 0.25
vt 0.125 0.25
usemtl anisotropic1SG
f 115/119/25 116/120/25 117/121/25
f 115/119/25 117/121/25 118/122/25
f 119/123/26 120/124/26 116/120/26
f 119/123/26 116/120/26 115/119/26
f 118/125/27 121/126/27 119/127/27
f 118/125/27 119/127/27 115/128/27
s off
g Caja1_anisotropic1SG_6
v -0.906842 3.81874 -2.04273
v -1.36188 3.81874 -2.04273
v -1.36188 4.28716 -2.04273
v -0.906842 4.28716 -2.04273
v -1.36188 4.28716 -1.60743
v -0.906842 4.28716 -1.60743
v -0.906842 3.81874 -1.60743
vn 0 0 -1
vn 0 1 0
vn 1 0 0
vt 0.625 0.528664
vt 0.597155 0.528664
vt 0.597155 0.5
vt 0.625 0.5
vt 0.597155 0.473363
vt 0.625 0.473363
vt 0.848363 0.25
vt 0.848363 0.221336
vt 0.875 0.221336
vt 0.875 0.25
usemtl anisotropic1SG
f 122/129/28 123/130/28 124/131/28
f 122/129/28 124/131/28 125/132/28
f 126/133/29 127/134/29 125/132/29
f 126/133/29 125/132/29 124/131/29
f 127/135/30 128/136/30 122/137/30
f 127/135/30 122/137/30 125/138/30
s off
g esquina8_anisotropic1SG_1
v 6.8764 4.28716 2.04273
v 7.75654 4.28716 2.04273
v 7.75654 4.28716 1.57934
v 6.8764 4.28716 1.57934
v 7.75654 3.81874 2.04273
v 7.75654 3.81874 1.57934
v 6.8764 3.81874 2.04273
vn 0 1 0
vn 1 0 0
vn 0 0 1
vt 0.597155 0.25
vt 0.625 0.25
vt 0.625 0.278356
vt 0.597155 0.278356
vt 0.625 0.221336
vt 0.653356 0.221336
vt 0.653356 0.25
vt 0.597155 0.221336
usemtl anisotropic1SG
f 129/139/31 130/140/31 131/141/31
f 129/139/31 131/141/31 132/142/31
f 133/143/32 134/144/32 131/145/32
f 133/143/32 131/145/32 130/140/32
f 129/139/33 135/146/33 133/143/33
f 129/139/33 133/143/33 130/140/33
s off
g Caja2_anisotropic1SG
v 6.8764 0.201696 -2.04273
v 6.8764 0.627851 -2.04273
v 7.75654 0.627851 -2.04273
v 7.75654 0.201696 -2.04273
v 7.75654 0.201696 -1.60743
v 6.8764 0.201696 -1.60743
v 7.75654 0.627851 -1.60743
vn 0 0 -1
vn 0 -1 0
vn 1 0 0
vt 0.597155 0.75
vt 0.597155 0.723922
vt 0.625 0.723922
vt 0.625 0.75
vt 0.625 0.776637
vt 0.597155 0.776637
vt 0.848363 0.026078
vt 0.848363 0
vt 0.875 0
vt 0.875 0.026078
usemtl anisotropic1SG
f 136/147/34 137/148/34 138/149/34
f 136/147/34 138/149/34 139/150/34
f 140/151/35 141/152/35 136/147/35
f 140/151/35 136/147/35 139/150/35
f 142/153/36 140/154/36 139/155/36
f 142/153/36 139/155/36 138/156/36
s off
g Caja2_anisotropic1SG_1
v -0.14563 0.201696 2.04273
v 0.667404 0.201696 2.04273
v 0.667404 0.627851 2.04273
v -0.14563 0.627851 2.04273
v -0.14563 0.201696 1.57934
v 0.667404 0.201696 1.57934
v -0.14563 0.627851 1.57934
vn 0 0 1
vn 0 -1 0
vn -1 0 0
vt 0.375 0
vt 0.400722 0
vt 0.400722 0.026078
vt 0.375 0.026078
vt 0.375 0.971644
vt 0.400722 0.971644
vt 0.400722 1
vt 0.375 1
vt 0.346644 0
vt 0.346644 0.026078
usemtl anisotropic1SG
f 143/157/37 144/158/37 145/159/37
f 143/157/37 145/159/37 146/160/37
f 147/161/38 148/162/38 144/163/38
f 147/161/38 144/163/38 143/164/38
f 147/165/39 143/157/39 146/160/39
f 147/165/39 146/160/39 149/166/39
s off
g Caja2_anisotropic1SG_2
v 7.75654 3.81874 -2.04273
v 6.8764 3.81874 -2.04273
v 6.8764 4.28716 -2.04273
v 7.75654 4.28716 -2.04273
v 6.8764 4.28716 -1.60743
v 7.75654 4.28716 -1.60743
v 7.75654 3.81874 -1.60743
vn 0 0 -1
vn 0 1 0
vn 1 0 0
vt 0.625 0.528664
vt 0.597155 0.528664
vt 0.597155 0.5
vt 0.625 0.5
vt 0.597155 0.473363
vt 0.625 0.473363
vt 0.848363 0.25
vt 0.848363 0.221336
vt 0.875 0.221336
vt 0.875 0.25
usemtl anisotropic1SG
f 150/167/40 151/168/40 152/169/40
f 150/167/40 152/169/40 153/170/40
f 154/171/41 155/172/41 153/170/41
f 154/171/41 153/170/41 152/169/41
f 155/173/42 156/174/42 150/175/42
f 155/173/42 150/175/42 153/176/42
s off
g Caja2_anisotropic1SG_3
v -0.14563 0.627851 -2.04273
v 0.667404 0.627851 -2.04273
v 0.667404 0.201696 -2.04273
v -0.14563 0.201696 -2.04273
v -0.14563 0.201696 -1.60743
v -0.14563 0.627851 -1.60743
v 0.667404 0.201696 -1.60743
vn 0 0 -1
vn -1 0 0
vn 0 -1 0
vt 0.375 0.723922
vt 0.400722 0.723922
vt 0.400722 0.75
vt 0.375 0.75
vt 0.125 0
vt 0.151637 0
vt 0.151637 0.026078
vt 0.125 0.026078
vt 0.400722 0.776637
vt 0.375 0.776637
usemtl anisotropic1SG
f 157/177/43 158/178/43 159/179/43
f 157/177/43 159/179/43 160/180/43
f 160/181/44 161/182/44 162/183/44
f 160/181/44 162/183/44 157/184/44
f 160/180/45 159/179/45 163/185/45
f 160/180/45 163/185/45 161/186/45
s off
g Caja2_anisotropic1SG_4
v -0.14563 4.28716 -2.04273
v 0.667404 4.28716 -2.04273
v 0.667404 3.81874 -2.04273
v -0.14563 3.81874 -2.04273
v -0.14563 4.28716 -1.60743
v 0.667404 4.28716 -1.60743
v -0.14563 3.81874 -1.60743
vn 0 0 -1
vn 0 1 0
vn -1 0 0
vt 0.375 0.5
vt 0.400722 0.5
vt 0.400722 0.528664
vt 0.375 0.528664
vt 0.375 0.473363
vt 0.400722 0.473363
vt 0.125 0.221336
vt 0.151637 0.221336
vt 0.151637 0.25
vt 0.125 0.25
usemtl anisotropic1SG
f 164/187/46 165/188/46 166/189/46
f 164/187/46 166/189/46 167/190/46
f 168/191/47 169/192/47 165/188/47
f 168/191/47 165/188/47 164/187/47
f 167/193/48 170/194/48 168/195/48
f 167/193/48 168/195/48 164/196/48
s off
g Caja2_lambert2SG
v 0.667404 4.28716 2.04273
v 6.8764 4.28716 2.04273
v 6.8764 4.28716 1.57934
v 0.667404 4.28716 1.57934
v 0.667404 0.201696 -2.04273
v 0.667404 0.627851 -2.04273
v 6.8764 0.627851 -2.04273
v 6.8764 0.201696 -2.04273
v 0.667404 0.201696 2.04273
v 0.667404 0.201696 1.57934
v 6.8764 0.201696 1.57934
v 6.8764 0.201696 2.04273
v 0.667404 0.627851 2.04273
v 6.8764 0.627851 2.04273
v 0.667404 3.81874 2.04273
v 6.8764 3.81874 2.04273
v 6.8764 3.81874 -2.04273
v 0.667404 3.81874 -2.04273
v 0.667404 4.28716 -2.04273
v 6.8764 4.28716 -2.04273
v 0.667404 3.81874 1.77918
v 0.667404 0.627851 1.77918
v 6.8764 0.627851 1.77918
v 6.8764 3.81874 1.77918
v -0.14563 0.627851 2.04273
v -0.14563 3.81874 2.04273
v -0.14563 0.627851 1.57934
v -0.14563 3.81874 1.57934
v -0.14563 3.81874 -2.04273
v -0.14563 0.627851 -2.04273
v 6.8764 0.627851 -1.77918
v 0.667404 0.627851 -1.77918
v 0.667404 3.81874 -1.77918
v 6.8764 3.81874 -1.77918
v 7.75654 0.627851 -2.04273
v 7.75654 3.81874 -2.04273
v 7.75654 0.627851 2.04273
v 7.75654 0.627851 1.57934
v 7.75654 3.81874 1.57934
v 7.75654 3.81874 2.04273
v 7.75654 4.28716 1.57934
v 7.75654 4.28716 -1.60743
v 6.8764 4.28716 -1.60743
v 0.667404 4.02361 1.57934
v 6.8764 4.02361 1.57934
v 6.8764 4.02361 -1.60743
v 0.667404 4.02361 -1.60743
v -0.14563 4.28716 1.57934
v 0.667404 4.28716 -1.60743
v -0.14563 4.28716 -1.60743
v -0.14563 3.81874 -1.60743
v 0.364136 0.627851 -1.60743
v 0.364136 0.627851 1.57934
v 0.364136 3.81874 1.57934
v 0.364136 3.81874 -1.60743
v -0.14563 0.201696 -1.60743
v -0.14563 0.201696 1.57934
v -0.14563 0.627851 -1.60743
v 0.667404 0.201696 -1.60743
v 6.8764 0.465248 1.57934
v 0.667404 0.465248 1.57934
v 0.667404 0.465248 -1.60743
v 6.8764 0.465248 -1.60743
v 7.75654 0.201696 1.57934
v 6.8764 0.201696 -1.60743
v 7.75654 0.201696 -1.60743
v 7.75654 0.627851 -1.60743
v 7.24678 3.81874 1.57934
v 7.24678 0.627851 1.57934
v 7.24678 0.627851 -1.60743
v 7.24678 3.81874 -1.60743
v 7.75654 3.81874 -1.60743
vn 0 1 0
vn 0 0 -1
vn 0 -1 0
vn 0 0 1
vn -1 0 0
vn 1 0 0
vt 0.400722 0.25
vt 0.597155 0.25
vt 0.597155 0.278356
vt 0.400722 0.278356
vt 0.400722 0.75
vt 0.400722 0.723922
vt 0.597155 0.723922
vt 0.597155 0.75
vt 0.400722 1
vt 0.400722 0.971644
vt 0.597155 0.971644
vt 0.597155 1
vt 0.400722 0.026078
vt 0.400722 0
vt 0.597155 0
vt 0.597155 0.026078
vt 0.400722 0.221336
vt 0.597155 0.221336
vt 0.597155 0.528664
vt 0.400722 0.528664
vt 0.400722 0.5
vt 0.597155 0.5
vt 0.375 0.026078
vt 0.375 0.221336
vt 0.346644 0.026078
vt 0.346644 0.221336
vt 0.375 0.528664
vt 0.375 0.723922
vt 0.625 0.723922
vt 0.625 0.528664
vt 0.625 0.026078
vt 0.653356 0.026078
vt 0.653356 0.221336
vt 0.625 0.221336
vt 0.625 0.278356
vt 0.625 0.473363
vt 0.597155 0.473363
vt 0.400722 0.473363
vt 0.375 0.278356
vt 0.375 0.473363
vt 0.151637 0.221336
vt 0.346644 0.25
vt 0.151637 0.25
vt 0.151637 0.026078
vt 0.151637 0
vt 0.346644 0
vt 0.375 0.776637
vt 0.400722 0.776637
vt 0.375 0.971644
vt 0.597155 0.776637
vt 0.625 0.971644
vt 0.625 0.776637
vt 0.653356 0
vt 0.848363 0
vt 0.848363 0.026078
vt 0.848363 0.221336
vt 0.653356 0.25
vt 0.848363 0.25
vt 0.125 0.026078
vt 0.125 0.221336
vt 0.875 0.026078
vt 0.875 0.221336
usemtl lambert2SG
f 171/197/49 172/198/49 173/199/49
f 171/197/49 173/199/49 174/200/49
f 175/201/50 176/202/50 177/203/50
f 175/201/50 177/203/50 178/204/50
f 179/205/51 180/206/51 181/207/51
f 179/205/51 181/207/51 182/208/51
f 183/209/52 179/210/52 182/211/52
f 183/209/52 182/211/52 184/212/52
f 171/197/52 185/213/52 186/214/52
f 171/197/52 186/214/52 172/198/52
f 187/215/50 188/216/50 189/217/50
f 187/215/50 189/217/50 190/218/50
f 191/213/52 192/209/52 193/212/52
f 191/213/52 193/212/52 194/214/52
f 195/219/52 183/209/52 185/213/52
f 195/219/52 185/213/52 196/220/52
f 197/221/53 195/219/53 196/220/53
f 197/221/53 196/220/53 198/222/53
f 199/223/50 188/216/50 176/202/50
f 199/223/50 176/202/50 200/224/50
f 201/203/50 202/202/50 203/216/50
f 201/203/50 203/216/50 204/215/50
f 205/225/50 177/203/50 187/215/50
f 205/225/50 187/215/50 206/226/50
f 207/227/54 208/228/54 209/229/54
f 207/227/54 209/229/54 210/230/54
f 210/230/52 186/214/52 184/212/52
f 210/230/52 184/212/52 207/227/52
f 173/199/49 211/231/49 212/232/49
f 173/199/49 212/232/49 213/233/49
f 214/200/49 215/199/49 216/233/49
f 214/200/49 216/233/49 217/234/49
f 218/235/49 174/200/49 219/234/49
f 218/235/49 219/234/49 220/236/49
f 221/237/53 198/222/53 218/238/53
f 221/237/53 218/238/53 220/239/53
f 222/240/53 223/221/53 224/222/53
f 222/240/53 224/222/53 225/237/53
f 226/241/53 227/242/53 197/221/53
f 226/241/53 197/221/53 228/240/53
f 226/243/51 229/244/51 180/206/51
f 226/243/51 180/206/51 227/245/51
f 230/207/51 231/206/51 232/244/51
f 230/207/51 232/244/51 233/246/51
f 234/247/51 181/207/51 235/246/51
f 234/247/51 235/246/51 236/248/51
f 208/228/54 234/249/54 236/250/54
f 208/228/54 236/250/54 237/251/54
f 238/229/54 239/228/54 240/251/54
f 238/229/54 240/251/54 241/252/54
f 211/253/54 209/229/54 242/252/54
f 211/253/54 242/252/54 212/254/54
f 219/234/49 213/233/49 190/218/49
f 219/234/49 190/218/49 189/217/49
f 200/255/53 228/240/53 221/237/53
f 200/255/53 221/237/53 199/256/53
f 235/246/51 229/244/51 175/201/51
f 235/246/51 175/201/51 178/204/51
f 242/252/54 237/251/54 205/257/54
f 242/252/54 205/257/54 206/258/54
f 185/213/54 183/209/54 192/209/54
f 185/213/54 192/209/54 191/213/54
f 183/209/49 184/212/49 193/212/49
f 183/209/49 193/212/49 192/209/49
f 184/212/53 186/214/53 194/214/53
f 184/212/53 194/214/53 193/212/53
f 186/214/51 185/213/51 191/213/51
f 186/214/51 191/213/51 194/214/51
f 177/203/49 176/202/49 202/202/49
f 177/203/49 202/202/49 201/203/49
f 176/202/54 188/216/54 203/216/54
f 176/202/54 203/216/54 202/202/54
f 188/216/51 187/215/51 204/215/51
f 188/216/51 204/215/51 203/216/51
f 187/215/53 177/203/53 201/203/53
f 187/215/53 201/203/53 204/215/53
f 174/200/50 173/199/50 215/199/50
f 174/200/50 215/199/50 214/200/50
f 173/199/53 213/233/53 216/233/53
f 173/199/53 216/233/53 215/199/53
f 213/233/52 219/234/52 217/234/52
f 213/233/52 217/234/52 216/233/52
f 219/234/54 174/200/54 214/200/54
f 219/234/54 214/200/54 217/234/54
f 228/240/49 197/221/49 223/221/49
f 228/240/49 223/221/49 222/240/49
f 197/221/50 198/222/50 224/222/50
f 197/221/50 224/222/50 223/221/50
f 198/222/51 221/237/51 225/237/51
f 198/222/51 225/237/51 224/222/51
f 221/237/52 228/240/52 222/240/52
f 221/237/52 222/240/52 225/237/52
f 181/207/50 180/206/50 231/206/50
f 181/207/50 231/206/50 230/207/50
f 180/206/54 229/244/54 232/244/54
f 180/206/54 232/244/54 231/206/54
f 229/244/52 235/246/52 233/246/52
f 229/244/52 233/246/52 232/244/52
f 235/246/53 181/207/53 230/207/53
f 235/246/53 230/207/53 233/246/53
f 209/229/50 208/228/50 239/228/50
f 209/229/50 239/228/50 238/229/50
f 208/228/49 237/251/49 240/251/49
f 208/228/49 240/251/49 239/228/49
f 237/251/52 242/252/52 241/252/52
f 237/251/52 241/252/52 240/251/52
f 242/252/51 209/229/51 238/229/51
f 242/252/51 238/229/51 241/252/51
s off
g Caja2_anisotropic1SG_5
v 7.75654 0.201696 2.04273
v 7.75654 0.201696 1.57934
v 7.75654 0.627851 1.57934
v 7.75654 0.627851 2.04273
v 6.8764 0.201696 2.04273
v 6.8764 0.201696 1.57934
v 6.8764 0.627851 2.04273
vn 1 0 0
vn 0 -1 0
vn 0 0 1
vt 0.625 0
vt 0.653356 0
vt 0.653356 0.026078
vt 0.625 0.026078
vt 0.597155 1
vt 0.597155 0.971644
vt 0.625 0.971644
vt 0.625 1
vt 0.597155 0.026078
vt 0.597155 0
usemtl anisotropic1SG
f 243/259/55 244/260/55 245/261/55
f 243/259/55 245/261/55 246/262/55
f 247/263/56 248/264/56 244/265/56
f 247/263/56 244/265/56 243/266/56
f 246/262/57 249/267/57 247/268/57
f 246/262/57 247/268/57 243/259/57
s off
g Caja2_anisotropic1SG_6
v -0.14563 4.28716 2.04273
v 0.667404 4.28716 2.04273
v 0.667404 4.28716 1.57934
v -0.14563 4.28716 1.57934
v -0.14563 3.81874 2.04273
v 0.667404 3.81874 2.04273
v -0.14563 3.81874 1.57934
vn 0 1 0
vn 0 0 1
vn -1 0 0
vt 0.375 0.25
vt 0.400722 0.25
vt 0.400722 0.278356
vt 0.375 0.278356
vt 0.375 0.221336
vt 0.400722 0.221336
vt 0.346644 0.221336
vt 0.346644 0.25
usemtl anisotropic1SG
f 250/269/58 251/270/58 252/271/58
f 250/269/58 252/271/58 253/272/58
f 254/273/59 255/274/59 251/270/59
f 254/273/59 251/270/59 250/269/59
f 256/275/60 254/273/60 250/269/60
f 256/275/60 250/269/60 253/276/60
s off
